{
  "cordova-plugin-nativegeocoder": {
    "source": {
      "type": "registry",
      "id": "cordova-plugin-nativegeocoder@^3.2.2"
    },
    "is_top_level": true,
    "variables": {
      "LOCATION_WHEN_IN_USE_DESCRIPTION": "Use geocoder service"
    }
  },
  "cordova-plugin-file": {
    "source": {
      "type": "registry",
      "id": "cordova-plugin-file@^6.0.2"
    },
    "is_top_level": true,
    "variables": {}
  },
  "cordova-plugin-filepath": {
    "source": {
      "type": "registry",
      "id": "cordova-plugin-filepath@^1.5.8"
    },
    "is_top_level": true,
    "variables": {}
  },
  "cordova-plugin-file-transfer": {
    "source": {
      "type": "registry",
      "id": "cordova-plugin-file-transfer@^1.7.1"
    },
    "is_top_level": true,
    "variables": {}
  },
  "call-number": {
    "source": {
      "type": "registry",
      "id": "mx.ferreyra.callnumber@0.0.2"
    },
    "is_top_level": true,
    "variables": {}
  },
  "cordova-plugin-x-socialsharing": {
    "source": {
      "type": "registry",
      "id": "cordova-plugin-x-socialsharing@^5.6.4"
    },
    "is_top_level": true,
    "variables": {
      "ANDROID_SUPPORT_V4_VERSION": "24.1.1+",
      "PHOTO_LIBRARY_ADD_USAGE_DESCRIPTION": "This app requires photo library access to function properly.",
      "PHOTO_LIBRARY_USAGE_DESCRIPTION": "This app requires photo library access to function properly."
    }
  },
  "es6-promise-plugin": {
    "source": {
      "type": "registry",
      "id": "es6-promise-plugin@^4.1.0"
    },
    "is_top_level": false,
    "variables": {}
  },
  "cordova-plugin-camera": {
    "source": {
      "type": "registry",
      "id": "cordova-plugin-camera@^4.1.0"
    },
    "is_top_level": true,
    "variables": {
      "ANDROID_SUPPORT_V4_VERSION": "27.+"
    }
  },
  "cordova-plugin-splashscreen": {
    "source": {
      "type": "registry",
      "id": "cordova-plugin-splashscreen@^5.0.3"
    },
    "is_top_level": true,
    "variables": {}
  },
  "cordova-plugin-statusbar": {
    "source": {
      "type": "registry",
      "id": "cordova-plugin-statusbar@^2.4.3"
    },
    "is_top_level": true,
    "variables": {}
  },
  "cordova-plugin-whitelist": {
    "source": {
      "type": "registry",
      "id": "cordova-plugin-whitelist@^1.3.4"
    },
    "is_top_level": true,
    "variables": {}
  },
  "cordova-support-google-services": {
    "source": {
      "type": "registry",
      "id": "cordova-support-google-services@~1.3.1"
    },
    "is_top_level": false,
    "variables": {}
  },
  "phonegap-plugin-barcodescanner": {
    "source": {
      "type": "registry",
      "id": "phonegap-plugin-barcodescanner@^8.1.0"
    },
    "is_top_level": true,
    "variables": {
      "ANDROID_SUPPORT_V4_VERSION": "27.+"
    }
  },
  "cordova-plugin-app-version": {
    "source": {
      "type": "registry",
      "id": "cordova-plugin-app-version@^0.1.9"
    },
    "is_top_level": true,
    "variables": {}
  },
  "cordova-plugin-crop": {
    "source": {
      "type": "registry",
      "id": "cordova-plugin-crop@0.4.0"
    },
    "is_top_level": true,
    "variables": {}
  },
  "cordova-plugin-speechrecognition": {
    "source": {
      "type": "registry",
      "id": "cordova-plugin-speechrecognition@^1.2.0"
    },
    "is_top_level": true,
    "variables": {}
  },
  "cordova-plugin-tts": {
    "source": {
      "type": "registry",
      "id": "cordova-plugin-tts@0.2.3"
    },
    "is_top_level": true,
    "variables": {}
  },
  "cordova-plugin-network-information": {
    "source": {
      "type": "registry",
      "id": "cordova-plugin-network-information@2.0.2"
    },
    "is_top_level": true,
    "variables": {}
  },
  "cordova-plugin-nativeaudio": {
    "source": {
      "type": "registry",
      "id": "cordova-plugin-nativeaudio@3.0.9"
    },
    "is_top_level": true,
    "variables": {}
  },
  "cordova-plugin-geolocation": {
    "source": {
      "type": "registry",
      "id": "cordova-plugin-geolocation@4.0.2"
    },
    "is_top_level": true,
    "variables": {}
  },
  "cordova-plugin-ionic-keyboard": {
    "source": {
      "type": "registry",
      "id": "cordova-plugin-ionic-keyboard@2.2.0"
    },
    "is_top_level": true,
    "variables": {}
  },
  "cordova-plugin-insomnia": {
    "source": {
      "type": "registry",
      "id": "cordova-plugin-insomnia@4.3.0"
    },
    "is_top_level": true,
    "variables": {}
  },
  "cordova-plugin-inappbrowser": {
    "source": {
      "type": "registry",
      "id": "cordova-plugin-inappbrowser@4.1.0"
    },
    "is_top_level": true,
    "variables": {}
  },
  "cordova-clipboard": {
    "source": {
      "type": "registry",
      "id": "cordova-clipboard@1.3.0"
    },
    "is_top_level": true,
    "variables": {}
  },
  "cordova-android-support-gradle-release": {
    "source": {
      "type": "registry",
      "id": "cordova-android-support-gradle-release@^3.0.1"
    },
    "is_top_level": true,
    "variables": {
      "ANDROID_SUPPORT_VERSION": "27.+"
    }
  },
  "cordova-plugin-androidx": {
    "source": {
      "type": "registry",
      "id": "cordova-plugin-androidx@3.0.0"
    },
    "is_top_level": true,
    "variables": {}
  },
  "cordova-plugin-androidx-adapter": {
    "source": {
      "type": "registry",
      "id": "cordova-plugin-androidx-adapter@1.1.3"
    },
    "is_top_level": true,
    "variables": {}
  },
  "com.razorpay.cordova": {
    "source": {
      "type": "registry",
      "id": "git+https://github.com/razorpay/razorpay-cordova.git"
    },
    "is_top_level": true,
    "variables": {}
  },
  "cordova-plugin-android-permissions": {
    "source": {
      "type": "registry",
      "id": "cordova-plugin-android-permissions@1.1.3"
    },
    "is_top_level": true,
    "variables": {}
  },
  "cordova-sms-plugin": {
    "source": {
      "type": "registry",
      "id": "cordova-sms-plugin@1.0.2"
    },
    "is_top_level": true,
    "variables": {}
  },
  "cordova-plugin-cocoapod-support": {
    "source": {
      "type": "registry",
      "id": "cordova-plugin-cocoapod-support"
    },
    "is_top_level": false,
    "variables": {}
  },
  "com.googlemaps.ios": {
    "source": {
      "type": "registry",
      "id": "https://github.com/mapsplugin/cordova-plugin-googlemaps-sdk"
    },
    "is_top_level": false,
    "variables": {}
  },
  "phonegap-plugin-multidex": {
    "source": {
      "type": "registry",
      "id": "phonegap-plugin-multidex@~1.0.0"
    },
    "is_top_level": false,
    "variables": {}
  },
  "cordova-plugin-googlemaps": {
    "source": {
      "type": "registry",
      "id": "cordova-plugin-googlemaps@latest"
    },
    "is_top_level": true,
    "variables": {}
  },
  "phonegap-plugin-push": {
    "source": {
      "type": "registry",
      "id": "https://github.com/phonegap/phonegap-plugin-push"
    },
    "is_top_level": true,
    "variables": {
      "ANDROID_SUPPORT_V13_VERSION": "27.+",
      "FCM_VERSION": "17.0.+"
    }
  },
  "cordova-plugin-ionic-webview": {
    "source": {
      "type": "registry",
      "id": "cordova-plugin-ionic-webview@5.0.0"
    },
    "is_top_level": true,
    "variables": {}
  }
}